<svg width="32" height="32" viewBox="0 0 32 32" fill="none" xmlns="http://www.w3.org/2000/svg">
<path d="M14.0603 23.8465C13.9326 23.8467 13.81 23.7965 13.719 23.7068L6.91174 16.9539C6.86245 16.91 6.82262 16.8566 6.79468 16.7969C6.76674 16.7371 6.75128 16.6723 6.74925 16.6064C6.74722 16.5405 6.75866 16.4749 6.78288 16.4135C6.80709 16.3522 6.84356 16.2964 6.89006 16.2496C6.93657 16.2029 6.99212 16.1661 7.05333 16.1415C7.11454 16.117 7.18011 16.1051 7.24605 16.1068C7.31198 16.1085 7.37688 16.1235 7.43678 16.1511C7.49668 16.1787 7.55031 16.2183 7.59441 16.2673L14.0332 22.6518L25.3282 9.50271C25.3697 9.45432 25.4204 9.41458 25.4773 9.38576C25.5341 9.35694 25.5961 9.3396 25.6597 9.33474C25.7233 9.32988 25.7872 9.33759 25.8478 9.35742C25.9084 9.37726 25.9644 9.40883 26.0128 9.45035C26.0612 9.49186 26.101 9.5425 26.1298 9.59937C26.1586 9.65624 26.1759 9.71823 26.1808 9.78181C26.1857 9.84538 26.178 9.90928 26.1581 9.96988C26.1383 10.0305 26.1067 10.0866 26.0652 10.135L14.4288 23.6642C14.3852 23.7144 14.3317 23.7552 14.2716 23.7839C14.2116 23.8126 14.1463 23.8286 14.0797 23.831L14.0603 23.8465Z" fill="#002D63"/>
</svg>
