<svg width="120" height="121" viewBox="0 0 120 121" fill="none" xmlns="http://www.w3.org/2000/svg">
<g clip-path="url(#clip0_64_9536)">
<path fill-rule="evenodd" clip-rule="evenodd" d="M120 60.5C120 72.3669 116.481 83.9673 109.888 93.8342C103.295 103.701 93.9246 111.392 82.961 115.933C71.9975 120.474 59.9335 121.662 48.2946 119.347C36.6557 117.032 25.9648 111.318 17.5736 102.926C9.18247 94.5352 3.46802 83.8443 1.15291 72.2054C-1.1622 60.5666 0.0259969 48.5026 4.56726 37.539C9.10851 26.5754 16.7989 17.2047 26.6658 10.6118C36.5328 4.01894 48.1331 0.5 60 0.5C75.913 0.5 91.1742 6.82141 102.426 18.0736C113.679 29.3258 120 44.587 120 60.5Z" fill="#D8E8FF"/>
<path d="M63.7973 39.1143H28.0716C25.2312 39.1143 22.9287 41.4168 22.9287 44.2571V45.1143C22.9287 47.9546 25.2312 50.2571 28.0716 50.2571H63.7973C66.6376 50.2571 68.9401 47.9546 68.9401 45.1143V44.2571C68.9401 41.4168 66.6376 39.1143 63.7973 39.1143Z" fill="#719CE3"/>
<path d="M63.7883 70.7429H36.6341C33.7937 70.7429 31.4912 73.0454 31.4912 75.8857V76.7429C31.4912 79.5832 33.7937 81.8857 36.6341 81.8857H63.7883C66.6287 81.8857 68.9312 79.5832 68.9312 76.7429V75.8857C68.9312 73.0454 66.6287 70.7429 63.7883 70.7429Z" fill="#719CE3"/>
<path d="M14.46 60.0286V60.8857C14.4599 62.2423 14.9959 63.544 15.9511 64.5072C16.9063 65.4705 18.2034 66.0173 19.56 66.0286H63.7457C65.1097 66.0286 66.4178 65.4867 67.3822 64.5223C68.3467 63.5578 68.8885 62.2497 68.8885 60.8857V60.0286C68.8885 58.6646 68.3467 57.3565 67.3822 56.392C66.4178 55.4276 65.1097 54.8857 63.7457 54.8857H19.6371C18.9589 54.8812 18.2864 55.0109 17.6585 55.2673C17.0306 55.5237 16.4596 55.9018 15.9784 56.3798C15.4972 56.8579 15.1153 57.4263 14.8547 58.0525C14.5941 58.6787 14.4599 59.3503 14.46 60.0286Z" fill="#719CE3"/>
<path d="M76.4315 87.9286C91.5799 87.9286 103.86 75.6484 103.86 60.5C103.86 45.3516 91.5799 33.0714 76.4315 33.0714C61.2831 33.0714 49.0029 45.3516 49.0029 60.5C49.0029 75.6484 61.2831 87.9286 76.4315 87.9286Z" fill="#2167AE"/>
<path d="M73.4832 72.0457C73.1284 72.0463 72.777 71.977 72.449 71.8417C72.1211 71.7063 71.823 71.5077 71.5718 71.2571L62.7175 62.4029C62.2106 61.8959 61.9258 61.2084 61.9258 60.4914C61.9258 59.7745 62.2106 59.0869 62.7175 58.58C63.2245 58.0731 63.912 57.7883 64.6289 57.7883C65.3459 57.7883 66.0334 58.0731 66.5404 58.58L73.3032 65.3429L86.1604 49.9143C86.6335 49.4287 87.2719 49.1389 87.9489 49.1024C88.6258 49.0658 89.2917 49.2853 89.8143 49.7172C90.3369 50.1491 90.6778 50.7617 90.7695 51.4335C90.8611 52.1052 90.6967 52.7868 90.3089 53.3429L75.5575 71.0771C75.3163 71.3648 75.0182 71.5994 74.6818 71.7661C74.3455 71.9328 73.9782 72.028 73.6032 72.0457H73.4832Z" fill="#FCFDFF"/>
</g>
<defs>
<clipPath id="clip0_64_9536">
<rect width="120" height="120" fill="white" transform="translate(0 0.5)"/>
</clipPath>
</defs>
</svg>
