<svg width="17" height="16" viewBox="0 0 17 16" fill="none" xmlns="http://www.w3.org/2000/svg">
<path d="M7.53017 11.9232C7.46631 11.9234 7.40498 11.8983 7.35951 11.8534L3.95587 8.47693C3.93123 8.45502 3.91131 8.42831 3.89734 8.39844C3.88337 8.36857 3.87564 8.33617 3.87463 8.30321C3.87361 8.27025 3.87933 8.23743 3.89144 8.20675C3.90354 8.17608 3.92178 8.1482 3.94503 8.12481C3.96828 8.10143 3.99606 8.08304 4.02666 8.07076C4.05727 8.05848 4.09006 8.05257 4.12302 8.0534C4.15599 8.05423 4.18844 8.06177 4.21839 8.07557C4.24834 8.08937 4.27516 8.10914 4.2972 8.13366L7.5166 11.3259L13.1641 4.75136C13.1849 4.72716 13.2102 4.70729 13.2386 4.69288C13.2671 4.67847 13.2981 4.6698 13.3298 4.66737C13.3616 4.66494 13.3936 4.66879 13.4239 4.67871C13.4542 4.68863 13.4822 4.70442 13.5064 4.72517C13.5306 4.74593 13.5505 4.77125 13.5649 4.79969C13.5793 4.82812 13.588 4.85912 13.5904 4.8909C13.5928 4.92269 13.589 4.95464 13.5791 4.98494C13.5691 5.01523 13.5534 5.04328 13.5326 5.06748L7.71442 11.8321C7.69261 11.8572 7.66585 11.8776 7.63582 11.8919C7.60579 11.9063 7.57313 11.9143 7.53987 11.9155L7.53017 11.9232Z" fill="#ECEEEF"/>
</svg>
